Project 1 - API Census Data
…
tibble_maker = function(input_url, tibble_name){
  d = httr::GET(input_url) # get the data from the URL
  parse = fromJSON(rawToChar(d$content)) # convert this our of JSON format
  colnames(parse) = parse[1,] # names are in the first row, so grab these
  tibble_name = as_tibble(parse, .name_repairs = 'unique') # specify rownames are in matrix
  tibble_name = tibble_name[-1,]# drop the row which has the tibble names in it
  return(tibble_name)
}

We needed to do some extra edits in our function to make sure that we get the variable names in the right place, but after some trial and error, we got it! Now we test the function to confirm it works:

tibble_maker("https://api.census.gov/data/2022/acs/acs1/pums?get=SEX,PWGTP,MAR&SCHL=24", test_tibble)

# A tibble: 44,079 × 4
   SEX   PWGTP MAR   SCHL 
   <chr> <chr> <chr> <chr>
 1 2     6     5     24   
 2 2     23    2     24   
 3 1     23    3     24   
 4 1     80    5     24   
 5 1     16    1     24   
 6 1     107   3     24   
 7 2     10    5     24   
 8 1     22    1     24   
 9 2     127   5     24   
10 2     46    5     24   
# ℹ 44,069 more rows
…
